<svg xmlns="http://www.w3.org/2000/svg" viewBox="-2 -2 20 20">
  <style>
  :root {
    --is-highlight: hsl(152, 62%, 47%);
    --is-background: hsl(0, 0%, 24%);
    --is-contrast: hsl(0, 0%, 82%);
  }
  </style>
  <path fill="var(--is-background)" d="M-2,-2h20v20h-20z"/>
  <g fill="var(--is-contrast)">
    <path d="M2.8 7A13.5 13.5 0 001 14h.7c0-2.2.7-4.8 1.7-6.5z" opacity=".5"/>
    <path d="M6.9 3l1 .2c1.6-1 4-1.5 6.1-1.5V1c-2.4 0-5.2.7-7.1 2z" opacity=".5"/>
    <path d="M8 8H2V2h6zM4 6h2V4H4z"/>
    <path d="M10 9v6l2-2.5 3-.5z"/>
  </g>
</svg>
