<svg xmlns="http://www.w3.org/2000/svg" viewBox="-20 -5 135 300" width="300">
  <!-- image from https://angblev.com/yoga/strength-and-grace/tea-recipe -->
  <style>
  :root {
    --cup-stroke: hsla(0, 0%, 0%, 0.8);
    --vapor-color: hsla(0, 0%, 0%, 0.5);
    --vapor-color-medium: hsla(0, 0%, 0%, 0.4);
    --vapor-color-light: hsla(0, 0%, 0%, 0.2);
  }
  .vapor-line {
    stroke-linecap: round;
    stroke-opacity: 0.5;
    stroke-dasharray: 0.3 0.7;
    stroke-dashoffset: 1;
    animation: draw 11s linear forwards infinite;
  }
  #b {
    animation-duration: 10.5s;
    stroke-dasharray: 0.2 0.8;
  }
  #c {
    animation-duration: 9s;
    stroke-dasharray: 0.35 0.65;
  }
  #d {
    animation-duration: 12s;
    stroke-dasharray: 0.5 0.5;
  }
  #e {
    animation-duration: 10s;
    stroke-dasharray: 0.4 0.6;
  }
  #f {
    animation-duration: 8s;
    stroke-dasharray: 0.2 0.8;
  }
  #g {
    animation-duration: 7s;
    stroke-dasharray: 0.6 0.4;
  }
  #h {
    animation-duration: 8s;
    stroke-dasharray: 0.55 0.45;
  }
  #i {
    animation-duration: 6s;
    stroke-dasharray: 0.6 0.4;
  }
  @keyframes draw {
    from {
      stroke-dashoffset: 1;
    }
    to {
      stroke-dashoffset: 0;
    }
  }
  </style>
  <clipPath id="vapor-a-pixeled">
    <path d="M67 12.3v1h-1v1.1h-.8v.7h-.7v.7H64v-.5h-.5v-1h.5v-.5h.5v-1h.5v-1.5h.5V9.7H65V7h-1V6h-1v-.5h-1V5h-.5v-.5h-1V4h-2v-.5h-1.6V3h-2v-.5h-3.6V2h-.5v.5h-3.6V3h-2.5v.6h-1V4h-.5v-.5h-.5V4h-.5v.5h-1.6V5h-1v.5h-1V6h-1v.5H36V7h-1v.5h-1v1h-1.5v1.1h-1v1h-1v.5H30v1h-1v.5h-.6v.5h-1v.5H27v1h-1v1.6h-1v1h-.5v1H24v.5h.5v.5H24v1h-.5v.5h.5v1.6h-.5v1h.5v.5h-.5v.5h.5v1.5h.5v2h1V29h.5v.5h1v1h1v.5h.5v.5h.6v.5h.5v.5h1v.5h1v.5h.5v.5h1v.5h.5v.6h1v.5h.6v.5h1v.5h.5v1h1v.5h.5v.5h.5v.5h.5v1h.5v.5h.5v1.1h.5v1.5h.5v2h.6v.5H41v1h.6v1.1H41v1.5h.6v.5H41v1h-.5v1.5H40v1h-.5v.5H39V55h-.5v.5H38v.5h-.5v1h-1v1H36v.5h-.5v.5h-1.1v1.6H33v1h-.5v.5H31v.5h-1v1h-.5v.5H29v-.5h-.6v.5H28v.5h-1v.5h-.5v.5h-1v.5H25v.5h-1.5v.6H23v.5h-.5V67h-.6v1h-1v.5h-1.5v.5h-1v.5h-.5v.5h-1.5v.5h-1.1v.5h-2v.5h-.5v.5h-1.5v.5h-1v.6H9v.5H8v.5H7v.5H6v.5H5v.5h-.5v.5h-1v.5H3v1.5h-.5v1.6H2v2h.5v2H3v1h.6V86H4v1h.5v.5H5V89h1v.5h.5v1H7v.5h.5v1h1v1h1.1v.5h.5v.5h.5v.5h.5v.5h1v1h1.5v.5h1v.5h.5v.5h1.6v.5h.5v.6h1v.5h1.5v.5h1v.5h1.6v.5h1v.5h1v.5h.5v.5h.5v-.5h.5v.5h.5v.5h1v.5H29v.5h.5v.5h1v.5h1v1.1h1v.5h.5v.5h1v1h.5v.5h1.1v1h.5v1h.5v.5h.5v2h.5v.6h.5v1.5h.5v.5h-.5v.5h.5v1.5h-.5v.6h.5v2h-.5v2h-.5v1H37v1.1h-.5v.5H36v1h-.5v1h1v1.5h1v1h.5v.5h-.5v.5h.5v.6h.5v1.5h.5v1h.5v2h.5v1h.5v1.6h.5v3h.6v1h.5v2h.5v.6h-.5v.5h.5v2.5h.5v.5h-.5v.5h.5v2h.5v.6h-.5v.5h.5v.5h-.5v.5h.5v3.6h-.5v.5h.5v.5h-.5v3.5h-.5v2.6h-.5v2h-.5v2H41v2h-.5v1.1H40v1.5h-.5v1H39v1h-.5v.5H38v.6h-.5v.5H37v-1.1h.5v-1h.5v-2h.5v-1h.5v-2.6h.5v-1.5h.5v-1.5h.5v-2h.5v-.5h-.5v-.6h.5V160h.6v-4.6h.5v-.5h-.5v-4H41v-.5h.6v-1H41v-.6h.6v-1H41v-2.5h-.5v-2H40v-1.1h-.5v-1h.5v-.5h-.5v-1H39v-2.5h-.5V136H38v-.5h.5v-.5H38v-1h-.5v-1H37v-1.5h-.5v-1H36v-1.1h-.5v-1H35v-1h-.6v1H34v.5h-.5v.5H33v.5h-.5v.6h-1v1H30v.5h-.5v.5h-1.6v.5h-1v-.5h-.5v.5H23v-.5h-1.6v-.5h-1v-.5h-.5v-.5h-.5v-.5h-.5v-1.1h-.5v-.5h-1v-.5h.5v-.5h-.5v-5.6h.5v-.5h.5v-1h1v-1h1.5v-.5h2.6v-.5h.5v.5h2.5v.5h.5v-.5h.5v.5h.5v.5h1.6v.5h1v.5h.5v.5h1v.5h.5v.5h.5v.5h1v.6h.5v-.6h.6v-.5h.5v-2h.5v-2h.5v-2H36v-.6h.5v-.5H36v-.5h.5v-.5H36v-1h-.5v-1.5H35v-1h-.6v-.6h-1v-1H33v-1h-1v-.5h-.5v-.5H31v-.5h-.5v-.5h-1v-.5H29v-.5h-1.1v-.5h-.5v-.6h-2v-1h-1.5v-.5h-1v-.5h-.5v-.5h-.6v.5h-1v-.5h-1v-.5h-.5v-.5h-1.5v-.5h-.5v-.5h-1v-.5h-.6v.5h-.5v-.5h-.5V99h-1v-.5h-1V98h-.5v-.5h-.5V97h-.5v-.5h-.5v.5h-.5v-1H9v-.5h-.5V95H8v-.5h-.5V94H7v-.5h-.5V93H6v-.5h-.5v-.6H5v-.5h-.5v-1H4V90h-.5v-.5H3v-1h-.5V88H2v-.5h.5V87h-1v-1H1v-1.1H.5v-1.5H0v-3.5h.5v-.6H0v-.5h.5v-1.5H1v-1h1v-1h.5v-.5h1.1v-.5H4v-.5h.5v-.5h1v-.6H6v-.5h1v-.5h2v-.5h.6v-.5h1v-.5h1v-.5h1.5v-.5h1.5v-.5h1V68h1.1v-.5h1.5V67h.5v-.6h.5V66h2v-1H23v-.5h.5V64H25v-.5h.5V63H27v-.5h.5V62h.5v-.5h1.6V61h.5v-.5h.5v-.6h1v-1h1v-.5h.5V58h1v-1h1.1v-.5h.5v-1h.5V55h.5v-1.1h.5v-1h.5v-1h1v-1.5h.5v-2h.5v-.5h-.5v-.6h.5v-.5h-.5v-2h-.5v-.5h.5v-.5h-.5v-.5h-.5v-1.5h-.5V41H37v-1h-1v-.5h-.5V39H35v-.5h-.6V38H34v-1h-1.5v-1H31v-.5h-.5V35h-1v-.6H29V34h-1.1v-.5h-1v-1h-1V32h-.5v-1h-.5v-.5h-.5V30h-.5v-.5h-.5V29h-.5v-1.1h-.5v-1.5h-.6V25h-.5v-4h.5v-.6h-.5v-.5h.5v-2h.6v-.5h.5v-2h1v-1.6h1v-1h1v-1h1v-1h.5v-.5h1v-.5h.6V9h.5v-.5h.5V8h1v-.5h.5V7h.5v-.5h1V6h1V5h1.6v-.5h.5V4h1.5v-.5h.5V3h1.5v-.5h1V2h2v-.5h1.1V1h.5v.5h.5V1h.5V.5h.5V1h.5V.5h5.1V0h1v.5H55V1h1V.5h1V1h.5v.5h2V2h.5v.5h.6V2h1v.5h.5V3h1.5v.6h.5V4h1v.5h.5V5h.5v.5h.5v1h.6V8h.5v1H67v.6h.5v2.2H67zm-40.6 119v-.2H28v-.5h1.6v-.6h1v-.5h.5v-1h1v-1h.5v-1h.5v-1h-.5v-.5H32v-1h-1v-.6h-1v-.5h-.5v-.5h-1.6v-.5h-1v-.5h-1.5v-.5h-3.6v.5h-1v.5h-1v1.5h-.5v.6h-.5v.5h.5v.5h-.5v1.5h.5v2h.5v.5h.5v.5h.5v.5h1v.6H23v.5h2.5v.5h1zM67 11.8v.5z"/>
  </clipPath>
  <clipPath id="vapor-b-pixeled">
    <path d="M51.3 177.3v-1.5h.5v-1h.5v-1.1h.5v-1h.5v-.5h.5v-1h.6v-1.5h.5v-.5h.5v-2h.5v-1.6h.5v-1h.5v-.5h-.5v-.5h.5V161h.5v-1h-.5v-3.5h-.5v-1.1h-.5v-2h-.5v-1h-.5v-1h-.5v-1.5h-.6v-.5h.6v-3.1h.5v-1h.5v-2h.5v-.6h.5v-1.5h.5v-1.5h.5v-1h.5v-3.1h.5v-1H58v-.5h.5v-3H58v-2h-.5v-.6H57v-.5h-3.1v-.5h-1v-.5h-.5v-1h-.5v-.5h.5v-.5H56v.5h1.5v.5h1v.5h.5v-.5h.5v.5h.5v-.5h2v-.5h.6v-.5h.5v.5h.5v-.5h.5v-.5h.5v-.5h1v-.6h1v-.5h1.1v-.5h.5v-.5h.5v-.5h.5v-.5h.5v-.5h.5v-.5h.5v-.5h.5v-.5h.5v-.5h.5v-.5h.5v-.6h.6v-1.5h.5v-1.5h.5v-1.5h-.5v-1h.5v-1.1h-.5v-1.5h-.5v-1h-.6v-1h-.5v-1h-.5v-.5h-.5v-.5h-.5v-.6h-.5v-.5h-.5v-1h-1v-.5H68v-.5h-.5v-1h-1.1v-.5H66v-.5h-1v-.5h-.5V99H64v-1h-.5v.6H63V98h-.5v-.5H61V97h-.5v-.5h-1.6v-1h-.5v.5H58v-.5h-1V95h-3.1v-.5h-1.5V94h-1.5v-.5h-.5v.5h-.5v-.5h-1V93h-1.6v-.5h-1.5v-.6h-.5v-.5h-1V91h-.5v-.5h-.5V90h-.5v-.5h-.5v-1h-.5V88h.5v-.5h-.5v-2.6H41v-.5h.6v-1.5h.5v-1h.5v-1h.5v-.5h.5v-.5h1v-1.1h1v-.5h1v-.5h1.1v-.5h1v-.5h2v-.5h1v-.5h1v-.5h2.6v-.5h1.5v-.5h1.5v.5h.5v-.5h1v-.5H63v-.5h.5v-.6h2v-.5h1v-.5h1.1v-.5h.5v-.5h1v-.5h1v-.5h.5v-.5h1v-.5h.5V68h.5v-.5h.6V67h.5v-.6h1v-1h.5V65h.5v-1h.5v-.5h.5V63h-1v.5h-1.5v1h-2v.5H70v.5h-3V65h-1v.5h-1V65h-1.5v-.5h-2V64H61v-.5h-.5V63h-1.1v-1h-1v-1.5H58v-.6h-.5v-.5h.5V59h-.5v-1.5h.5v-1h-.5V56h.5v-1h.5v-1.1h.5v-1h.5v-1h1.1v-.5h.5v-.5h.5v-.5h1v-.5h1v-.5h2v-.5h1v.5h1.1v-.5h4v.5h.5v.5h1.1v-.5h.5v.5h.5v.5h.5v-.5h.5v1h1.5v.5h.5v.5h1v.5h.5v.5h.5v.5h.6V55h.5v2.5h.5V57h.5v-.5h.5V56h.5v-.5h.5v-1h.5v-1.1h.5v-.5h.5v-.5h.5v-1h.5v-1.5h1.1v-1.5h.5v-1.1h.5v-1.5h.5v-1.5h.5v-.5h.5v-.5h-.5v-.5h.5V41h.5v-1H89v-.5h.5v-1h.5V38h-.5v-1h.5v-2.6h.5V34H90v-2h.5v-.5H90V31h-.5v-1.5h.5V29h-.5v-1.6H89v-1h.5V26H89v-1h-.5v-2.5H88v-.6h-.5v-1H87v-1.5h-.5v-.5H86v-.5h-.6v-1h-.5v-.5h-.5v-.5h-.5v-.6h-1v-1h-.5v.5h-.5v-.5h-1v-.5h-.5v-.5h-1.6v-.5h-3.5v-.5h-1v.5h-3.6v.5h-2v.5H67v1h-1v1.1h-1.5v-.6H64v-.5h.9v-1h.5v-.5h.5v-1.5h1.7v-.5h.9v-.7H70v-.5h.5v.5H72v-.5h3.6v.5h1v-.5h.5v.5h2v.5h1.1v.5h2v1h1.5v.5h1v.5h.5v.5h.6v.5h.5v1.1h1v.5h.5v1h.5v1h.5v.5h.5v2h.5V23h.5v1h.5v1h.5v.5H91v.5h.5v1.5h.5V29h-.5v.5h.5v6h-.5v.6h.5v3h-.5v1.5H91v3.1h-.5v.5H90v.5h.5v1H90v.5h-.5v1.6H89v1h-.5v.5H88v2h-.5v.5H87v.5h-.5v1.5H86v.6h-.6v1h-1v1h-.5v.5h-.5v.5h-.5v1h-.5v.5h-.5v.5h-.5v.5h-.5v.6h-1v1h-.6V63h-.5v1h-.5v.5h-.5v1h-.5v1h-.5v.6h-.5v.5h-.5v1h-1.5v1h-.5v.5h-1.1v.5h-1v1h-1v.5h-.5v.5h-1.5v.6h-1v.5H67v.5h-1v.5h-2v.5h-1v.5h-2.5v.5h-.6v-.5h-.5v.5H59v.5h-2.5v.5H56v-.5h-.5v.5h-1v.5h-2v.5h-2.1v.5h-.5v.5h-2v.6h-.6v.5h-1v.5h-1v1h-.5v.5h-.5v1h-.5V86h-.5v.5h.5V88h.5v1h1v.5h.5v.5h.5v.5h1.6v.5h1v.5h1.5v.5h2.5v.6h2v.5h1.6v.5h2v.5h.5v.5h1.6v.5H62v.5h1v.5h1v.5h.5v.5h1v.5h.5v.5h1.1v1.1h.5v.5h.5v.5h1v.5h.5v.5h.5v.5h.5v.5h1v1h.5v.5h.5v.5h.6v.5h.5v1.6h1v1.5h.5v1.5h.5v.5h-.5v.5h.5v1.1h.5v.5h-.5v.5h.5v.5h-.5v.5h.5v.5h-.5v3h-.5v.5h-.5v.6h-.5v1h-.5v.5h-.5v1h-.6v.5h-.5v.5h-.5v.5h-.5v.5h-.5v.5h-1v1.1h-1v.5H68v.5h-.5v.5h-1.1v.5h-1v.5h-1v.5H64v.5h-.5v-.5H63v.5h-1v.5h-2.6v.5h.5v1.5h.6v7.2h-.6v.5h-.5v1.5H59v.5h.5v.5H59v1h-.5v1.5H58v1.1h-.5v1.5H57v1h-.5v.5h.5v.5h-.5v3.1h.5v1.5h.5v1h.5v1.5h.5v1h.5v.6h-.5v.5h.5v2h.5v.5H59v1h.5v.5H59v1h.5v.6H59v1.5h-.5v2H58v1h-.5v.5h.5v.5h-.5v1.1H57v.5h-.5v1.5H56v1h-.5v1.5H55v.5h-.5v1.1h-.6v1h-.5v1h-.5v1h-.5v.5h-.5v.5h-.5zm14.2-114V63h.5v.5h3.6V63h1v.5h1V63h.5v-.5h1.1V62h1.5v-.5h1V61h1v-.5h.5v-.6h.5v-.5h.5V59h-.5v-.5h.5v-3h-.5V55h-.5v-1.1h-.5v-.5h-1v-1h-1.5v-.5h-2v-.5H71v-.5h-1v.5h-.5v-.5H69v.5h-.5v-.5h-3.1v.5H64v.5h-1v.5h-.5v.5h-1v.5H61v.5h-.5v.6h-.6v2h-.5v2h.5V60h.6v1h.5v.5h.5v.5h.5v.5h1.5v.5H65v.5h.5zm11.7-.6v-.2h-.5v.5h.5z"/>
  </clipPath>
  <clipPath id="vapor-c-pixeled">
    <path d="M67.6 162.7v-.5h.5v-9.7h-.5v-.5h.5v-.5h-.5v-1h.5v-.5h-.5v-1.1h.5v-.5h-.5v-.5h.5v-1.5h-.5v-.5h.5v-1h.5v-1h.5v-.5h-.5v-.6h.5v-1h.5v-1h.5v-1h.5v-1h.5v-.5h.5v-.5h.5v-.5h.5V136h.6v-.5h1v-.5h.5v-.5h1v-1h1v-1h1v-.5h.5v-.5h.5v-.5h.5v-.5h.6v-1.1h.5v-1h.5v-1h.5v-1h.5v-.5h.5v-1.5h.5v-.5h.5v-.6h-.5v-1h.5v-1h.5v-2h.5v-.5h-.5v-.5h.5v-5.6h-.5v-.5h.5v-.5h-.5v-1.1h-.5v-.5h.5v-.5h-.5v-.5h-.5v-1.5h-.5v-1h-.5v-.5h-.5v-.5h-.5v-.5h.5v-.6h-1v-1h-.5v-1h-1.1V101h-1v-1h-.5v-.5h-.5V99h-.5v-1h-.5v-.5h-.5v-1h-.5V96h-.5v-.5h-.5V95h-.5v-1h-.6v-.5h-.5v-1.6h-.5v-1.5h-.5v-1h-.5v-5.1h.5v-.5h-.5v-.5h.5v-1.5h.5v-.5h.5v-.5h.5v-1h.6v-1.1h.5v-.5h.5v-.5h1v-.5h.5v-.5h1.5v-1h1.5v-.5h1.6v-.5h1v-1h.5v-.5h.5V72h1v-.5h.5V71h1v-.5H86V70h2v.5h-1v.5h-.5v.5H86v.5h-.6v.5h-1v.6h-.5v1h-.5v.5h-.5v.5h-.5v.5h1v.5h.5v1h.5v1h.5v.5h-.5v.5h.5v.6h-.5v2h-.5v.5h-.5v.5h-3v-1h-.5v-2.6h-.6v-1h.6v-1.5h-.6v.5h-1v.5h-1v1h-1v.5h-.5v1.1h-1v1h-1v.5h-.5v2h-.6v.5h-.5v.5h.5v.5h-.5v.6h.5v1h-.5v.5h.5v2.5h.6v1h.5v1h.5V93h.5v.5h.5v.5h.5v1.5h1v1h.5v.5h.5v.5h.5v1.6h1v.5h.6v.5h.5v1h.5v1h.5v.5h.5v.5h.5v1h.5v.5h.5v1.1h.5v1h.5v.5h.5v1.5h.5v1.5h.6v2h.5v.6H86v1.5h.5v2H86v4.1h-.6v2.5h-.5v1.1h-.5v1h-.5v.5h.5v.5h-.5v1h-.5v1h-.5v1h-.5v1h-.5v.6h-.5v1h-1v1h-.5v.5h-.6v.5h-.5v.5h-1v.5h-.5v.5h-.5v.5h-1v1.1h-1v.5h-.5v.5h-.5v.5h-.5v.5h-.6v1h-.5v.5h-.5v.5h-.5v1.5h-.5v1.1h-.5v1.5h-.5v2.5h-.5v.5h.5v.5h-.5v.5h.5v.6h-.5v1h.5v9.1h-.5v2.6h-.5v.5H68v.5h-.5zm14.7-82.3v-.5h.5v-1.6h-.5v-.5h-1v.5h.5v.5h-.5v.5h.5v1.6h.5z"/>
  </clipPath>
  <path id="a" class="vapor-line" stroke="var(--vapor-color-dark)" clip-path="url(#vapor-a-pixeled)" pathLength="1" stroke-width="2.5" fill="none" d="M37 175.3c10.2-13.7 5.3-57.2-13.8-55.3-9 1-5 12 1.2 12.2 7 .3 12.7-8 13.1-15.2.7-12.4-19.5-15.8-28.5-22.8-4.5-3.7-12-13.3-5.3-18.8C14 66.9 38.1 65 40.5 46.9 42 36.4 21.2 32.8 22.3 22.3 23.5 11.6 38.3 1 51.5 1.4c18.7.5 16.2 10 12.5 14.4"/>
  <path id="b" class="vapor-line" stroke="var(--vapor-color-dark)" clip-path="url(#vapor-b-pixeled)" pathLength="1" stroke-width="2.5" fill="none" d="M51 178.8c3.3-5.6 6.8-13 7-16.2.6-8-2.3-9.3-2.6-13.8-.2-4.2 5.5-11.6 4-17.7-3-11.2-14.4-1.4 3.3-4.6 5-1.2 11.5-7.5 12.5-12.5 1.3-7.4-9.1-16.2-15.5-18.7-7.3-2.9-17.3-2.3-17.3-10 0-6.4 10-8.6 16.3-9.9 9.3-1.9 21.6-8.7 20.7-18.7-.7-8-19.5-10.5-20.8.8-.8 7.2 10.8 7.5 16 5.4 10.8-4.1 16.2-19.2 16.2-30.7.1-17.9-14.6-25.6-26.5-16.6"/>
  <path id="c" class="vapor-line" stroke="var(--vapor-color-dark)" clip-path="url(#vapor-c-pixeled)" pathLength="1" stroke-width="2.5" fill="none" d="M67.5 163.2s.9-2.6 1.1-4c.8-4.3-.6-10.7.7-15 2.2-7.1 6.2-8.1 10.2-12.5a27 27 0 005.8-16.7c0-6-3.2-10.6-7.1-15.3-3-3.6-6.7-8.8-6.9-12.7a11 11 0 016.4-10.1c10.4-4.2 4.4 10.7 3 3-1.2-5.7 4.3-8.7 7.2-10"/>
  <path id="d" class="vapor-line" stroke="var(--vapor-color-medium)" clip-path="url(#vapor-a-pixeled)" pathLength="1" stroke-width="2.5" fill="none" d="M37 175.3c10.2-13.7 5.3-57.2-13.8-55.3-9 1-5 12 1.2 12.2 7 .3 12.7-8 13.1-15.2.7-12.4-19.5-15.8-28.5-22.8-4.5-3.7-12-13.3-5.3-18.8C14 66.9 38.1 65 40.5 46.9 42 36.4 21.2 32.8 22.3 22.3 23.5 11.6 38.3 1 51.5 1.4c18.7.5 16.2 10 12.5 14.4"/>
  <path id="e" class="vapor-line" stroke="var(--vapor-color-medium)" clip-path="url(#vapor-b-pixeled)" pathLength="1" stroke-width="2.5" fill="none" d="M51 178.8c3.3-5.6 6.8-13 7-16.2.6-8-2.3-9.3-2.6-13.8-.2-4.2 5.5-11.6 4-17.7-3-11.2-14.4-1.4 3.3-4.6 5-1.2 11.5-7.5 12.5-12.5 1.3-7.4-9.1-16.2-15.5-18.7-7.3-2.9-17.3-2.3-17.3-10 0-6.4 10-8.6 16.3-9.9 9.3-1.9 21.6-8.7 20.7-18.7-.7-8-19.5-10.5-20.8.8-.8 7.2 10.8 7.5 16 5.4 10.8-4.1 16.2-19.2 16.2-30.7.1-17.9-14.6-25.6-26.5-16.6"/>
  <path id="f" class="vapor-line" stroke="var(--vapor-color-medium)" clip-path="url(#vapor-c-pixeled)" pathLength="1" stroke-width="2.5" fill="none" d="M67.5 163.2s.9-2.6 1.1-4c.8-4.3-.6-10.7.7-15 2.2-7.1 6.2-8.1 10.2-12.5a27 27 0 005.8-16.7c0-6-3.2-10.6-7.1-15.3-3-3.6-6.7-8.8-6.9-12.7a11 11 0 016.4-10.1c10.4-4.2 4.4 10.7 3 3-1.2-5.7 4.3-8.7 7.2-10"/>
  <path id="g" class="vapor-line" stroke="var(--vapor-color-light)" clip-path="url(#vapor-a-pixeled)" pathLength="1" stroke-width="2.5" fill="none" d="M37 175.3c10.2-13.7 5.3-57.2-13.8-55.3-9 1-5 12 1.2 12.2 7 .3 12.7-8 13.1-15.2.7-12.4-19.5-15.8-28.5-22.8-4.5-3.7-12-13.3-5.3-18.8C14 66.9 38.1 65 40.5 46.9 42 36.4 21.2 32.8 22.3 22.3 23.5 11.6 38.3 1 51.5 1.4c18.7.5 16.2 10 12.5 14.4"/>
  <path id="h" class="vapor-line" stroke="var(--vapor-color-light)" clip-path="url(#vapor-b-pixeled)" pathLength="1" stroke-width="2.5" fill="none" d="M51 178.8c3.3-5.6 6.8-13 7-16.2.6-8-2.3-9.3-2.6-13.8-.2-4.2 5.5-11.6 4-17.7-3-11.2-14.4-1.4 3.3-4.6 5-1.2 11.5-7.5 12.5-12.5 1.3-7.4-9.1-16.2-15.5-18.7-7.3-2.9-17.3-2.3-17.3-10 0-6.4 10-8.6 16.3-9.9 9.3-1.9 21.6-8.7 20.7-18.7-.7-8-19.5-10.5-20.8.8-.8 7.2 10.8 7.5 16 5.4 10.8-4.1 16.2-19.2 16.2-30.7.1-17.9-14.6-25.6-26.5-16.6"/>
  <path id="i" class="vapor-line" stroke="var(--vapor-color-light)" clip-path="url(#vapor-c-pixeled)" pathLength="1" stroke-width="2.5" fill="none" d="M67.5 163.2s.9-2.6 1.1-4c.8-4.3-.6-10.7.7-15 2.2-7.1 6.2-8.1 10.2-12.5a27 27 0 005.8-16.7c0-6-3.2-10.6-7.1-15.3-3-3.6-6.7-8.8-6.9-12.7a11 11 0 016.4-10.1c10.4-4.2 4.4 10.7 3 3-1.2-5.7 4.3-8.7 7.2-10"/>
  <path fill="var(--cup-stroke)" d="M39.6 286v-.1H34v-.5h-2v-.5h-3.1v-.6h-1.5v-.5h-1.6v-.5h-2v-.5h-1.5v-.5h-1v-.5h-1v-.5h-.7v-1H19v-2h-.5v-.5h-1v-.6h-1.4v-.5h-.6v-.4H15v-.5h-1v-.5h-.5v-.5H13v-1h-1v-1h-.5v-.5H11v-1h-.5v-4.6h.5v-.5h-.5v-1h.5v-.6h-.5V263h.5v-.5h-.5V261h.5v-.5h-.5V259h.5V258h-.5v-1h.5v-.5h-.5v-3h.5v-.5h-.5v-1.7h.5v-.5h-.5v-3.5h.5v-1.5h-.5v-.6h.5v-1.5h-.5v-.4h.5v-.5h-.5v-.5h.5v-1h-.5v-.5h.5v-.5h-.5v-.5h.5v-.6h-.5v-.5h.5v-.5h-.5v-1h.5v-.5h-.5v-1h.5v-1h-.5v-.5h.5v-2h-.5v-.6h.5v-8.1h-.5v-.5h.5v-22.5h.5v-1H11V197h.5v-.5H11v-.5h.5v-.5H11v-2h.5v-.6H11v-1.5h.5v-.5H11v-.6h1v-.5h-.5v-.5H13v-.5h1v-.5h1.5v-.5h2v-.5h1v.5h.5v-.5h1v-.5h1v.5h.6v-.5h1v.5h.5v-.5h1v-.5h1.5v.5h1v-.5h4v-.5h.6v.5h.5v-.5h1v.5h.6v-.5h2.5v-.5h.5v.5h.5v-.5h1v.5h1.7v-.5h.5v.5h.5v-.5H42v.5h1v-.5h1v.5h.5v-.5h.5v.5h1v-.5h1v.5h.6v-.5h1v.5h.5v-.5h.5v.5h.5v-.5h1v.5h1v-.5h.6v.5h1v-.5h1v.5h5v.5h.6v-.5h.5v.5h.5v-.5h1v.5h.5v-.5h1v.5H71v.5h.5v-.5h.5v.5h2v.5h.5v-.5h.5v.5h2.6v.5h1.5v.5h1.4v1.6h2v6H82v.6h.5v3H82v.5h.5v40h.5v.7h-.5v1.5h.5v.5h-.5v6h.5v.6h-.5v1h.5v.5h-.5v2h.5v.6h-.5v1h.5v1h-.5v1h.5v.5h-.5v.5h.5v.5h-.5v4h.5v.6h-.5v.5h.5v1h-.5v.5h.5v1h-.5v1h.5v.6h-.5v1h.5v.5h-.5v3h-1v.6h.5v1h.5v.5H82v.5h-.5v.5H81v.5h-1v1h-1.5v.5H78v.5h-.5v.6h-1v.5H76v.5h.5v.5H76v.5h.5v.5H76v1.5h-.5v-.5H75v1h-.5v.5H73v.5h-.5v-.5H72v.5h-1v.6h-.6v-.6H70v1h-2.4v.6H64v.5h-4v.5h-.5v-.5h-1v.5h-1.6v-.5h-.5v.5h-2v-.5h-.5v.5h-4.6v.5h-.5v-.5h-1v.5h-.5v-.5h-1v.5h-6.7zm-2.6-2v-.1h1v.5h15.8v-.5h3.5v-.6h.5v.6h.6v-.6h3v-.5h1v.5h.5v-.5h2v-.5h.6v.5h.5v-.5h2v-.5h2v-.5h.5v.5h.6v-.5h.5v-.5h.5v.5h1.5v-.5h.5v-.5h1v-.5h-.5v-.5h.5v-.5h-1.5v.5H72v.5h-1.6v.5h-1v.5H69v-.5h-1v.5h-.5v-.5H67v.5h-.5v.5h-2.6v.5h-1v-.5h-.5v.5h-3v.5h-.5v-.5h-.5v.5h-1.6v-.5h-1v.5h-3v.5h-.5v-1h-.7v.5H51v.5h-1v-.5h-1.5v.5h-1v-.5H46v.5H45v.5h-1v-.5h-1v.5h-.4v-.5h-1v.5H41v-.5h-1.5v-.5H39v.5h-.4v-.5H34v-.5h-2v-.5H31v.5h-.5v-.5h-1v-.5H29v.5h-.5v-.5h-1v-.5h-2.6v-.5h-.5v-.5h-.5v.5h-.5v-.5h-1v-.5h-1v1.5h1.5v.5h.5v.5h1.5v.5h3v.5h1.6v.5H31v.5h1v.6h3.6v.5H37zm2.6-3.4v-.3H43v.5h.5v-.5h.5v.5h1.6v-.5h7v-.5h5v-.5h.7v.5h1v-.5h1.5v.5h.5v-.5h2v-.5H66v-.5h2.5v-.5H70v-.6h.5v.6h.6v-1.1h.5v.5h1v-.5h.5v-.4h.5v.5h.5v-.5h1v-.5h1v-.5h1v-.5h.6v-.5h.5v-.5h.5v-.5h.5v-.5h.5v-.5h1.5v-1.6h.5v-.5h-.5v-4.5h.5v-.5h-.5v-29.6h.5v-.5h-.5v-44.2h-1v.4h-.5v.5H76v.5h-1.5v.5H74v-.5h-1v.5h-4v.5H67v.5h-.5v-.5H65v.5h-.6v-.5h-.5v.5H53.8v.5h-.5v-.5h-1v.5h-.7v-.5h-1v.5H50v-.5h-1v.5h-1v-.5h-.5v.5H45v-.5h-1v.5h-.4v-.5h-1v.5H42v-.5h-1v.5h-1v-.5h-.5v.5H38v-.5h-1v.5h-3v-.5h-.5v.5h-1.6v-.5h-1v.5h-.5v-.5h-1.5v.5h-.5v-.5h-3.1v-.5h-4.5v-.5h-1.2v.5h-1v-.5h-3v-.5h-1v-.5H14v-1h.5v-.5h.5v.5h2.5v.5h.5v-.5h.5v.5h2v.5h.6v-.5h1.5v.5h.5v-.5h1.5v-.5h3v-.5h2.6v-.5H40v-.5h.5v.5H46v-.5h1v.5h.5v-.5h1v.5h.5v-.5h.5v.5h.5v-.5h10v.5h.7v-.5h.5v.5h2.5v.5h3.8v.5h.5v-.5h.5v.5h3v-.5h.5v.5h.5v-.5H75v-.5h2v-.5h-1.5v-.5h-1v.5H74v-.5h-3v-.5H67v-.5h-.5v.5H66v-.5h-1v.5h-.6v-.5h-1v.5h-.5v-.5h-.5v.5h-.5v-.5h-4.6v-.5h-.5v.5h-1v-.5H43.6v-.5h-1v.5h-5.1v.5H37v-.5h-.4v.5H36v-.5h-1v.5h-1v-.5h-.5v.5h-4.1v.5h-2v-.5H27v.5h-3.1v.6h-.5v-.6h-1.5v.6h-1v.4h-.5v-.5h-1.2v.5h-.5v-.5h-.5v.5h-1.5v.5h-1v-.5h-.5v.5h-.6v.5h-1v.5H13v1h.5v.5H13v.5h.5v.5H13v.5h.5v1.6H13v1.5h.5v.5H13v3h.5v1H13v1.6h.5v.5H13v.5h.5v.5H13v2h.5v1H13v4.6h-.5v.5h.5v3.7h-.5v.5h.5v3.6h-.5v.5h.5v4.4h-.5v1h.5v2.6h-.5v1h.5v1h-.5v.5h.5v1h-.5v.6h.5v1h-.5v.5h.5v1h-.5v.5h.5v1.5h-.5v.5h.5v1h-.5v1.3h.5v1h-.5v1h.5v.5h-.5v.5h.5v.5h-.5v1h.5v1h-.5v1.5h.5v2.5h-.5v.5h.5v.5h-.5v1h.5v.6h-.5v.5h.5v.5h-.5v1h.5v.5h-.5v1.5h.5v.5h-.5v2h.5v.6h-.5v.5h.5v1h-.5v.5h.5v.5h-.5v8.6h.5v.6h.5v.5h.6v1.5h1v.5h1v.5h.4v.5H18v.5h1v.5h1.6v.5h1v.5h1.5v.5h1.5v.6h1.5v.5h1.6v.5h.5v-.5h.5v.5h1.5v.5h1.5v.5h.5v-.5h.6v.5h3.5v.5h1v-.5h.5v.5h1v.5h.6zm-10.7-88.4v-.3h1v.5h3v-.5h1v.5h1v-.5h.6v.5h3v-.5h.5v.5h2v-.5h1v.5h1v-.5h1v.5h.6v-.5h10.2v.5h1v-.5h3v-.5h.6v.5h.5v-.5h.5v.5h.5v-.5h3.5v.5h.6v-.5h.5v-.5h-2.6v-.6H42v.5h-1v-.5h-1.5v.5H39v-.5h-1v.5h-.4v-.5H37v.5h-1v-.5h-.5v.5H35v-.5h-.5v.5H34v-.5h-.5v.5H30v.5h-4v.5h2.5v.5h.5zm37.6-1v-.3H66v.4h.5zm11.7-1.6v-.2h-.6v.5h.5z"/>
</svg>
